…
Question 2: Currently dep\_time and sched\_dep\_time are convenient to
look at, but hard to compute with because they’re not really continuous
numbers. Convert them to a more convenient representation of number of
minutes since midnight.

``` r
#since midnight: 2400 is 1440, add 100 %% 1440 because that's 0 
flights %>% 
  mutate(dep_time_conv = (dep_time %/% 100 * 60 + dep_time %% 100) %% 1440, sched_dep_time_conv = (sched_dep_time %/% 100 * 60 + sched_dep_time %% 100) %% 1440) %>%
  select(sched_dep_time, sched_dep_time_conv, dep_time, dep_time_conv)
```

    ## # A tibble: 336,776 x 4
    ##    sched_dep_time sched_dep_time_conv dep_time dep_time_conv
    ##             <int>               <dbl>    <int>         <dbl>
    ##  1            515                 315      517           317
    ##  2            529                 329      533           333
    ##  3            540                 340      542           342
    ##  4            545                 345      544           344
    ##  5            600                 360      554           354
    ##  6            558                 358      554           354
    ##  7            600                 360      555           355
    ##  8            600                 360      557           357
    ##  9            600                 360      557           357
    ## 10            600                 360      558           358
    ## # … with 336,766 more rows
…
